3381,SMITS,KLERK,2400,20
3462,ALKEMA,VERKOPER,2600,30
3518,WALSTRA,VERKOPER,2250,30
3930,PIETERS,MANAGER,3975,20
4510,VERGEER,VERKOPER,2250,30
4621,KLAASEN,MANAGER,3850,30
5810,HEUVEL,MANAGER,3450,10
5931,SANDERS,ANALIST,4000,20
6221,KRAAY,DIRECTEUR,6000,10
6500,DROST,VERKOPER,2500,30
6681,ADELAAR,KLERK,2100,20
7900,APPEL,KLERK,1950,30
7902,VERMEULEN,ANALIST,3900,20
8222,MANDERS,KLERK,2300,10
